%YAML 1.1
%TAG !u! tag:unity3d.com,2011:
--- !u!114 &11400000
MonoBehaviour:
  m_ObjectHideFlags: 0
  m_PrefabParentObject: {fileID: 0}
  m_PrefabInternal: {fileID: 0}
  m_GameObject: {fileID: 0}
  m_Enabled: 1
  m_EditorHideFlags: 0
  m_Script: {fileID: 11500000, guid: 1bf42219594b3374bac0d80bcee338f3, type: 3}
  m_Name: Soldier
  m_EditorClassIdentifier: 
  name: Soldier
  icon: {fileID: 21300000, guid: 0d9c62538256d9546b022f5ee04afda5, type: 3}
  isDefaultItem: 0
  prefab: {fileID: 0}
